1213989264@qq.com
3284634598@qq.com
991510074@qq.com
2733944386@qq.com
709791936@qq.com
10175066@qq.com
1342780962@qq.com
484583336@qq.com
3285741301@qq.com
2411683239@qq.com
2544221866@qq.com
1606899029@qq.com
154429095@qq.com
1179382355@qq.com
872085579@qq.com
2965365180@qq.com
290692657@QQ.com
1057247526@qq.com
1804087693@qq.com
1419696348@qq.com
2423235280@qq.com
1121853640@qq.com
2951387873@QQ.COM
2929283723@qq.com
731988701@qq.com
315772983@qq.com
18923093743@163.com
2411660575@qq.com
m15853609336_1@163.com
2722710260@qq.com
18938159713@189.cn
1595304909@qq.com
1640045515@qq.com
3422443481@qq.com
454234357@qq.com
genyuanhb@126.com
3103859799@qq.com
610386730@qq.com
1527552492@qq.com
qpj@lvts.cn
727920632@qq.com
724558664@qq.com
1591922759@qq.com
2212409866@qq.com
3374427530@qq.com
3354949448@qq.com
614010956@qq.com
69569382@qq.com
48659115@qq.com
3002725065@qq.com
2191878498@qq.com
2743247317@qq.com
992515275@qq.com
admin@yaolongchem.com
2280814130@qq.com
2434318137@qq.com
3123813386@qq.com
2788803891@qq.com
525741590@qq.com
2325948157@qq.com
3563479600@qq.com
2106973246@qq.com
119077038@qq.com
18364660852@163.com
3389147932@qq.com
3344687050@qq.com
2446853610@qq.com
3365233575@qq.com
378709641@qq.com
1223072270@qq.com
asst.sales@bersn.com
1522406650@qq.com
3467851735@qq.com
1471283968@qq.com
544184206@qq.com
1293434194@qq.com
1752688100@qq.com
731204490@qq.com
278613536@qq.com
2694567210@qq.com
2037778258@qq.com
1399398275@qq.com
3139829980@qq.com
3081735383@qq.com
sales01@jxherb.com
sdfmdq@163.com
2216118967@qq.com
281736306@qq.com
3501154463@qq.com
2136230169@qq.com
3172544240@qq.com
2427500266@qq.com
1091084710@qq.com
412135884@qq.com
2235589717@qq.com
1802325807@qq.com
15838374718@qq.com
langmanwoxin@qq.com
603158989@qq.com
3460543495@qq.com
2031399780@qq.com
1175242940@qq.com
3214775510@qq.com
1011431667@qq.com
3319880786@qq.com
szshep@163.com
1743975037@qq.com
296365610@qq.com
15900539077@163.com
1444204762@qq.com
1791164964@qq.com
2356260845@qq.com
1517820585@qq.com
406781403@qq.com
3222867216@qq.com
3517966351@qq.com
jsgdlight@163.com
1498483899@qq.com
1459949882@.qq.com
2669836067@qq.com
572337087@qq.com
3235963095@qq.com
ztfl14250@163.com
29979812@qq.com
763330672@qq.com
452480744@qq.com
2465812490@qq.com
712732148@qq.com
2243056298@qq.com
13585908956@qq.com
3533605817@qq.com
sales88@sztrendz.com
jxsyxny@ummail.net
3467522453@qq.com
2366810493@qq.com
466812815@qq.com
2954196673@qq.com
286545722@qq.com
a564801511@163.com
807172618@qq.com
2850556991@qq.com
764418794@qq.com
3040862457@qq.com
584657250@qq.com
198240457@qq.com
2490688645@qq.com
1144915547@qq.com
mgr@chinaseal.cn
xxhgzlz@163.com
13771570032@qq.com
675500887@QQ.com
1464399279@qq.com
2824415750@qq.com
hzsrt2018@163.com
jnanyuan03@163.com
1711585607@qq.com
lfkanghua@126.com
2731578388@qq.com
zitaily@126.com
2970698793@qq.com
554419676@qq.com
496642986@qq.com
rifnte2@163.com
3431237847@qq.com
3475467478@qq.com
3261833368@qq.com
1369061182@qq.com
553311178@QQ.COM
781120210@qq.com
1035105350@qq.com
2592318795@qq.com
2047989545@qq.com
953756505@qq.com
2683058305@qq.com
2851899287@qq.com
2171197574@qq.com
786091931@qq.com
931019911@qq.com
2639849776@qq.com
1218229767@qq.com
3253597741@qq.com
zbonwn@126.com
826510855@qq.com
850439405@qq.com
1293420124@qq.com
799708543@qq.com
2250787949@qq.com
506277093@qq.com
jxxingan@ummail.net
767296241@qq.com
95011210@qq.com
826760774@qq.com
13771671707@126.com
2911282445@qq.com
18512087232@163.com
13713952196@qq.com
1358332678@qq.com
zpengtong@leilawin.com
ncjhmx@ummail.net
1410921553@qq.com
3500763147@qq.com
1951283463@qq.com
zhxfsb911@ummail.net
1455054785@qq.com
106062416@qq.com
1833673243@qq.com
3530528070@qq.com
3380860265@qq.com
598298090@qq.com
673644114@qq.com
3042541847@qq.com
2658211559@qq.com
jingshuixianfeng@ummail.net
3165859018@qq.com
712323959@qq.com
985713285@qq.com
2965947780@qq.com
2463955285@qq.com
397653341@qq.com
15827196130@163.com
746901602@qq.com
87825279@qq.com
1048092497@qq.com
xuan@5923d.com
3145706416@qq.com
827089111@qq.com
119940191@qq.com
2396742557@qq.com
2044811981@qq.com
2158531810@qq.com
627208415@qq.com
2542570388@qq.com
649834880@qq.com
2609916733@qq.com
3318241532@qq.com
2646572894@qq.com
990312092@qq.com
carrie@wayli.cn
2428259965@qq.com
13793463241@139.com
2653623041@qq.com
1432498501@qq.com
2728664853@qq.com
1837628910@qq.com
524085168@qq.com
2902198512@qq.com
2506166835@qq.com
674496255@qq.com
ruitianshebei@163.com
13169915533@163.COM
2695116557@qq.com
61865826@qq.com
894800481@qq.com
2896767245@qq.com
m13914345792@163.com
17737144211@sina.cn
3598117734@qq.com
gzlong88@126.com
609158658@qq.com
dcjhwy@163.com
huaqianjinglang@163.com
1102403125@qq.com
szxgxcool@163.com
3356652710@qq.com
714117422@qq.com
wuliuguang2018@qq.com
1531997364@qq.com
1150388054@qq.com
jxbywhgs@ummail.net
2382254488@qq.com
344982100@qq.com
rmbh1014648820@163.com
2097158195@qq.com
1350777598@qq.com
2948683221@qq.com
279880719@qq.com
1423199075@qq.com
liandongbz@163.com
2981698945@qq.com
3415605805@qq.com
912396209@qq.com
2880904710@qq.com
2853024819@qq.com
2284281329@qq.com
hasinotech001@gmail.com
1901984867@qq.com
swanbedding88@163.com
2913757503@qq.com
408760399@qq.com
lsgaowentao@163.com
257135140@qq.com
sue@chembj.com
2050688733@qq.com
3366169729@qq.com
2114629609@qq.com
fengjisibu@163.com
18911265597@163.com
1245607570@qq.com
2493381820@qq.com
3079986507@qq.com
26948568784@qq.com
2885060962@qq.com
256437084@qq.com
13870763871@163.com
980763333@qq.com
yinjian8077@163.com
2408703884@qq.com
18953494345@163.com
3353805429@qq.com
liuliangmei1688@163.com
1148403849@qq.com
412823968@qq.com
qdhoming@126.com
3003861508@qq.com
2216396645@qq.com
539995304@qq.com
1295772411@qq.com
1826259114@qq.com
jinlinsl@126.com
2337883742@qq.com
3426882002@qq.com
2734373830@qq.com
1424628104@qq.com
2084600639@qq.com
1497651591@qq.com
2861848586@qq.com
2110741235@qq.com
2102736863@qq.com
2885287749@qq.com
3528478198@qq.com
alvin@sawChina.cn
3359480770@qq.com
1417313357@qq.com
2263269714@qq.com
3549778484@qq.com
2277234757@qq.com
13107413893@136.com
2546783571@qq.com
bob@fayfiber.com
3136415396@qq.com
2168505836@qq.com
695122825@qq.com
furuiexpokay@qq.com
2579992101@qq.com
994781691@qq.com
bthailuo@163.com
859953333@qq.com
505027567@qq.com
1405246016@qq.com
13861316123@163.com
ycjtchem@chembj.com
2647996208@qq.com
2878569694@qq.com
3267323046@qq.com
399896586@qq.com
381133141@qq.com
2880381713@qq.com
2545925827@qq.com
2246466999@qq.com
3109167409@qq.com
1299960407@qq.com
3224463968@qq.com
1825391773@qq.com
2160955153@qq.com
czad360751@qq.com
yikang01@126.com
3024078131@jiudl.com
2108927812@qq.com
1463093361@qq.com
403930394@qq.com
1454018001@qq.com
2853767800@qq.com
3339252509@qq.com
hefccs@163.com
huodiwulian1@163.com
3433447675@qq.com
1272609789@qq.com
339511027@qq.com
592916443@qq.com
1546381989@qq.com
2656853628@qq.com
3003862565@qq.com
227477817@qq.com
2113310794@qq.com
3385858035@qq.com
3288177203@qq.com
1464631151@qq.com
3039567347@qq.com
2355428353@qq.com
xinruiyingxiao@163.com
2643788936@qq.com
okinwai@ummail.net
513384783@qq.com
491755024@qq.com
tianlihouse@163.com
759096328@qq.com
1758806489@qq.com
2881924838@qq.com
2592361537@qq.com
qixinchina1@163.com
wfrwdq@163.com
3039329348@qq.com
naazhn09@163.com
2427878@qq.cm
david@intpkg.cn
1536054668@qq.com
windy@yuanchengtech.com
2355428352@qq.com
3481196701@qq.com
641610316@qq.com
2547173949@qq.com
qujiankeji@163.com
498227428@qq.com
2315302608@qq.com
905866616@qq.com
827860618@qq.com
572158984@qq.com
649063842@qq.com
3224867946@qq.com
2180001589@qq.com
lydangfeng@163.com
lianxiangnet1@163.com
613112777@qq.com
2919634015@qq.com
qugongvalve@163.com
gdpfgs@renmai.com
der005016@qddeer.com
3263879074@qq.com
978715633@qq.com
2355258861@qq.com
3230727218@qq.com
2260789887@qq.com
henggr@126.com
qiumojiw@ummail.net
clmdqcj@sina.com
pennygateon@163.com
3419777699@qq.com
3030069965@qq.com
brandoogolf@163.com
1913617899@qq.com
1154607799@qq.com
15927585764@163.com
946702945@qq.com
798784816@qq.com
474436721@qq.com
289458369@qq.com
2850902179@qq.com
market@dreamgo.tech
1961166659@qq.com
2659137568@qq.com
980999709@qq.com
webmaster@dmcl.cn
2673151078@qq.com
2877297838@qq.com
yxvalve@163.com
595365970@qq.com
919991329@qq.com
878290946@qq.com
2104873155@qq.com
hnxiangshu@ummail.net
18232876679@163.com
78510950@qq.com
stsicn@163.com
18620776615@qq.com
th@thdzyq.cn
869151582@qq.com
shyy01@qq.com
316571286@qq.com
18453466718@163.com
2755730500@qq.com
1291708310@qq.com
931632460@qq.com
2649951152@qq.com
674922594@qq.com
417465573@qq.com
0760vip@163.com
373135838@qq.com
liujhon123456@qq.com
1927322520@qq.com
1522403874@qq.com
474696449@qq.com
2307567831@qq.com
dmj@bliss-dg.com
kxjnhbgs@126.com
info@sinodecstone.com
1411530068@qq.com
613116377@qq.com
1352581158@qq.com
3147384378@qq.com
260162482@qq.com
418251814@qq.com
2407593292@qq.com
m18162112954@163.com
m13818449941@163.com
byby8@qq.com
karvf_valves@126.com
m13538313237@163.com
1954514060@qq.com
1107800862@qq.com
btkexing@126.com
2355559025@QQ.COM
2389707506@qq.com
1962765356@qq.com
3005659607@qq.com
2307272389@qq.com
cable@chinasuperlink.com
181688518@qq.com
szfsldz@qq.com
sdsdzssj@163.com
2929930170@qq.com
539226014@qq.com
3052561875@qq.com
2861330544@qq.com
2197322969@qq.com
2910840532@qq.com
386683726@qq.com
475662603@qq.com
406662859@qq.com
656729593@qq.com
aichongyaoye001@163.com
2221898750@qq.com
2812317001@qq.com
yanfa@china34.com.cn
2355554783@qq.com
3005168778@qq.com
2696816451@163.com
3177781423@qq.com
xawdtf@ummail.net
2772077785@qq.com
2757788951@qq.com
3005501280@qq.com
zhitu08@126.com
3368919225@qq.com
XS008@clymkj.com
1079064050@qq.com
duanjiayue@esitcal.com
bruce@china-lutong.net
3066057626@qq.com
3229925620@qq.com
3461351648@qq.com
2263065202@qq.com
18217734969@139.com
445206078@qq.com
1933016158@qq.com
1838314580@qq.com
1545014871@qq.com
2642288526@qq.com
3491902258@qq.com
qianshigg@ummail.net
yongqiang_87@126.com
1390273448@qq.com
18838168563@163.com
874140328@qq.com
1605573869@qq.com
1468408566@qq.com
3307308383@qq.com
huanhuan1917@foxmail.com
63775798@qq.com
2035167242@qq.com
496477989@qq.com
710227878@qq.com
349363084@qq.com
2929948308@qq.com
zxlhdl@ummail.net
1354949851@qq.com
407830945@qq.com
2759457130@qq.com
2859240271@qq.com
2142501748@qq.com
xaxxf@ummail.net
2388356477@qq.com
btxlqc@126.com
1696518444@qq.com
2552797410@qq.com
2792296018@qq.com
BLT0484@163.com
2917852006@qq.com
sz3397@hwxvisa.com
1477569995@qq.com
b@brush.hk
btjysk2@126.com
1500287193@qq.com
987637435@qq.com
zsf12345@163.com
sunda166@sina.com
3597534937@qq.com
32906793632@qq.com
1224468767@qq.com
1317092768@qq.com
gxaolando@163.com
gdjttl@163.com
2359300026@qq.com
2543483572@qq.com
2885346988@qq.com
hbbtsmgs@126.com
m18864816933@163.com
ppa069@163.com
xajcps@ummail.net
381455293@qq.com
xzg329566664@126.com
2207064737@qq.com
3004675692@qq.com
2133710994@qq.com
1749432588@qq.com
935094693@qq.com
18516203257@163.com
383218849@qq.com
ncfyjg@ummail.net
3320454361@qq.com
1963488325@qq.com
705314158@qq.com
dgweijie@126.com
jxzczk@ummail.net
kshtkj@126.com
2044566018@qq.com
3004993430@qq.com
dazedongli@yeah.net
2236332948@qq.com
xajingchang@ummail.net
btfmgs@126.com
kinsana@163.com
1736474434@qq.com
1723085135@qq.com
yzsbgs@126.com
2355754358@qq.com
1766150112@qq.com
tougaoliu01@163.com
xyxc8809@163.com
1439689206@qq.com
614465686@qq.com
3468416228@qq.com
2671692426@qq.com
1264228431@qq.com
best_misszjx@163.com
1490230030@qq.com
3427964100@qq.com
jxbtc01@126.com
1293224576@qq.com
btfmzc@126.com
ncfcrobot@ummail.net
939727163@qq.com
3544468389@qq.com
15021975322@163.com
2273103321@qq.com
1327618336@qq.com
1552128382@qq.com
2900267976@qq.com
398950509@qq.com
3525973758@qq.com
3416206001@qq.com
1174499427@qq.com
2981143689@qq.com
1368296591@qq.com
3502842580@qq.com
3407653893@qq.com
2068887830@qq.com
jxhrscjt@ummail.net
3381492433@qq.com
1301470813@qq.com
3118166526@qq.com
294754235@qq.com
2460898397@qq.com
49175024@qq.com
2746142051@qq.com
13601840452@163.com
1359087860@qq.com
2450076142@qq.com
1019805333@qq.com
1330513582@qq.com
2857851939@qq.com
tengxiangccc@126.com
364227347@qq.com
xajingchang111@ummail.net
2190523418@qq.com
btmmpfj@126.com
1031311436@qq.com
qianshanjingshui@163.com
853053388@qq.com
460378779@qq.com
2592154594@qq.com
702569610@qq.com
3037586334@qq.com
3552671277@qq.com
029ssj@ummail.net
btyzsbgs@126.com
3413781677@qq.com
948155380@qq.com
446469130@qq.com
2851617315@qq.com
977376372@qq.com
2088438948@qq.com
1725551325@qq.com
185750600@qq.com
3324044068@qq.com
3152185746@qq.com
bfwww027@sohu.com
2850902176@qq.com
yuguan012@163.com
3268408642@qq.com
16001146@qq.com
btkxfm@126.com
sun2@sunchonpack.com
121656800@qq.com
yaqing2016@chembj.com
shmiaojia68@163.com
1015662871@qq.com
732879105@qq.com
13253656290@163.com
15064385350@126.com
929511702@qq.com
1295272652@qq.com
604175855@qq.com
2068748371@qq.com
SZTY666@163.com
029shenyuan@ummail.net
1051866883@qq.com
3320271691@qq.com
613226502@qq.com
1901878773@qq.com
2270546832@qq.com
465176254@qq.com
2355699272@qq.com
2789396403@qq.com
470422949@qq.com
15959573162@163.com
3220911662@qq.com
3209407572@qq.com
3401681366@qq.com
xianfyz@ummail.net
18367451632@163.com
3516183258@qq.com
1440888476@qq.com
1103998823@qq.com
1442996270@qq.com
xabyh@ummail.net
3176100086@qq.com
1011024585@qq.com
1831053978@qq.com
3135576832@qq.com
btlyyjx@163.com
13382586037m0@sina.cn
dglinchen@163.com
2682735882@qq.com
jiaminglvye@126.com
2449646061@qq.com
2458826047@qq.com
2293255336@qq.com
trassir1@163.com
3398477108@qq.com
2593959479@qq.com
927866309@qq.com
lzhose@163.com
3395106513@qq.com
1548781964@qq.com
1259873871@qq.com
3454875570@qq.com
2929556627@qq.com
zcsbcj001@163.com
huatton@163.com
bmkesd@dgbmk.com
2387268000@qq.com
3391558052@qq.com
1028239272@qq.com
767846717@qq.com
rstumbrella@qq.com
sales@rtjiju.888
1595521116@qq.com
qdlzks@126.com
m15932703812@163.com
2850989338@qq.com
3478672426@qq.com
btqhj@sina.com
1594985419@qq.com
2839586850@qq.com
476714514@qq.com
1158932779@qq.com
2457870936@qq.com
3140739681@qq.com
870441402@qq.com
2396358651.@.www.com
ligongfang2018@163.com
1468875482@qq.com
1756392418@qq.com
hbtjnl@126.com
bxty123@163.com
272018136@qq.com
tsrh@rnhyts.com
shuguangzhongji@163.com
aotameisen@163.com
157954407@qq.com
1547772324@qq.com
2533682552@qq.com
18913149994@163.com
546161083@qq.com
2023595828@qq.com
375605371@qq.com
710941338@qq.com
qyxptsl@163.com
512574950@qq.com
503525820@qq.com
shgrd666@163.com
1375221239@qq.com
mengtf97@163.com
3217835957@qq.com
chaoran9699@163.com
1683966483@qq.com
614911960@qq.com
934779189@qq.com
luoxiwu@gdxiniu.cn
613226506@qq.com
2051897003@qq.com
sales@ffxora.com
2930656217@qq.com
zjzckj88@163.com
jiji998877123@qq.com
571162470@qq.com
hysqaq@qq.com
1163287845@qq.com
1812712452@qq.com
3005037428@qq.com
370700012@qq.com
66753375@qq.com
2881322085@qq.com
534037986@qq.com
1753964352@qq.com
liliugen@dgxiniu.cn
3196729824@qq.com
xajby@chembj.com
17582452@qq.com
2761483687@qq.com
mo.dai@luftmy.com
2295206284@qq.com
18519731782@163.com
sales@donen.com.cn
2431566013@qq.com
1511426637@qq.com
1769063523@qq.com
fcmn3657@163.com
2268649130@qq.com
bmfp14@163.com
2271877728@qq.com
785749533@qq.com
2968123689@qq.com
1814002889@qq.com
gdgykj@163.com
1772363880@qq.com
3353266260@qq.com
qihuogs@163.com
1748813964@qq.com
2766423072@qq.com
2355435665@qq.com
2881322658@qq.com
2697851956@qq.com
hengrui222@126.com
3596219710@qq.com
2868511148@qq.com
3334083656@qq.com
3203699890@qq.com
158578855@qq.com
1161941585@qq.com
1063339533@qq.com
bkdz0510@163.com
sensor@w410.com
302511117@qq.com
3337232173@QQ.com
1457659649@qq.com
ejv41124863@126.com
3268600977@qq.com
1134278735@qq.com
3299794364@qq.com
15250530769@163.com
2150873536@qq.com
1574007354@qq.com
971122191@qq.com
1305525231@qq.com
1558254808@qq.com
mkxychina@ummail.net
btkxjnhb@sina.com
15303384789@163.com
18792581192@163.com
huoli0769@163.com
1178278778@qq.com
1543496272@qq.com
2879963478@qq.com
3152633771@qq.com
30314953@qq.com
ncstnsy@ummail.net
243643605@qq.com
2059726706@qq.com
lingjiapack@163.com
2576389712@qq.com
32624080512@qq.com
2415721550@qq.com
2995394485@qq.com
2039182471@qq.com
1054699976@qq.com
1875200977@qq.com
516571492@qq.com
1724875061@qq.com
2055935527@qq.com
253484110@qq.com
kyl0915@163.com
zhongmeiyjy@163.com
sdcxsxzhang@qq.com
zqdyw17@163.com
3622853552@qq.com
510843365@qq.com
1140935005@qq.com
1957562461@qq.com
lift98@jslift.com
1980335232@qq.com
58916569@qq.com
ybnpumps@126.com
jessie@honest-cn.com
2370318076@qq.com
1293731405@qq.com
cqxxnt@ummail.net
1055010540@qq.com
chyj66@163.com
3443902334@qq.com
1955999501@qq.com
china8888_1893@163.com
1030266911@qq.com
271638165@qq.com
3505113323@qq.com
486299817@qq.com
2047505958@qq.com
2244146059@qq.com
183811070@qq.com
13726603295@163.com
2821106890@qq.com
3267991054@qq.com
yuanrensh@163.com
2506492576@qq.com
2543483573@qq.com
1984949577@qq.com
2751550555@qq.com
2304355431@qq.com
whguokong@163.com
2561041898@qq.com
2922008920@qq.com
381654315@qq.com
1725046822@qq.com
2784831534@qq.com
13751397184@163.com
2606199503@qq.com
1609769559@qq.com
xie70735@126.com
2864538748@qq.com
2597178847@qq.com
1161807273@qq.com
jsautomatic03@yeah.net
dovoh5108@163.com
245163510@qq.com
3178898502@qq.com
2425563826@qq.com
hnszl1@ummail.net
2120294395@qq.com
913787682@qq.com
xxderon@163.com
270509422@qq.com
1295039316@qq.com
703714641@qq.com
3078914680@qq.com
3147553795@qq.com
15131774148@163.com
liutaotao@oil8.com
3254513845@qq.com
18250837655@163.com
zhaomr@dehiled.com
2458194283@qq.com
675897456@qq.com
hzyep1@163.com
zeng.solar@kkstech.com
btkrs111@126.com
3386581487@qq.com
1207725106@qq.com
1556907642@qq.com
2980969646@qq.com
1929609232@qq.com
1239873639@qq.com
3456287336@qq.com
1025708095@qq.com
2665136547@qq.com
szhengchi@126.com
152168908872@163.com
2936670391@qq.com
wxf1586@163.com
2868573494@qq.com
1973406212@qq.com
775018098@qq.com
3046840285@qq.com
osmond@kaihongchem.com
613116372@qq.com
3336692818@qq.com
965524465@qq.com
3004332841@qq.com
ruoyundashuju@qq.com
613116378@qq.com
570328207@qq.com